/home/dexterous/Desktop/Emblogic/005_Character_Device_Driver_Development/my_driver.ko
/home/dexterous/Desktop/Emblogic/005_Character_Device_Driver_Development/init.o /home/dexterous/Desktop/Emblogic/005_Character_Device_Driver_Development/clean.o

