/home/dexterous/Documents/Emblogic/006_Block_Device_Driver_Development/register_chrdev/my_device.ko
/home/dexterous/Documents/Emblogic/006_Block_Device_Driver_Development/register_chrdev/init_func.o /home/dexterous/Documents/Emblogic/006_Block_Device_Driver_Development/register_chrdev/cleanup_func.o

