/home/dexterous/Documents/Emblogic/006_Block_Device_Driver_Development/basic_mem_allocation/my_device.ko
/home/dexterous/Documents/Emblogic/006_Block_Device_Driver_Development/basic_mem_allocation/init_func.o /home/dexterous/Documents/Emblogic/006_Block_Device_Driver_Development/basic_mem_allocation/cleanup_func.o

