/home/dexterous/Documents/Emblogic/006_Block_Device_Driver_Development/basic_request_queue/my_device.ko
/home/dexterous/Documents/Emblogic/006_Block_Device_Driver_Development/basic_request_queue/init_func.o /home/dexterous/Documents/Emblogic/006_Block_Device_Driver_Development/basic_request_queue/cleanup_func.o /home/dexterous/Documents/Emblogic/006_Block_Device_Driver_Development/basic_request_queue/dev_req_func.o

